{
  "confessions": [
    {
      "day": "Tuesday-Friday",
      "time": "11:45 AM",
      "location": "Cathedral"
    },
    {
      "day": "Saturday",
      "time": "4:00 PM",
      "location": "Cathedral"
    },
    {
      "day": "1st Fridays",
      "time": "7-8:15 PM",
      "location": "Cathedral",
      "note": "Cor Jesu"
    }
  ]
}
